
i =

     1


B =

    1.2000         0


fB =

   -3.3600


i =

     2


B =

    1.8000    1.2000


fB =

   -5.8800


i =

     3


B =

    1.8000    1.2000


fB =

   -5.8800


i =

     4


B =

    3.6000    1.6000


fB =

   -6.2400


i =

     5


B =

    3.6000    1.6000


fB =

   -6.2400


i =

     6


B =

    3.6000    2.4000


fB =

   -6.7200


i =

     7


B =

    3.0000    2.2000


fB =

   -6.9600


i =

     8


B =

    3.0000    2.2000


fB =

   -6.9600


i =

     9


B =

    3.0000    2.2000


fB =

   -6.9600


i =

    10


B =

    3.0000    2.2000


fB =

   -6.9600